2022-12-01 10:21:33,779 - INFO - GUIlogger - <module> - Starting ColdJig GUI
2022-12-01 10:21:33,780 - INFO - GUIlogger - <module> - Reading config file: configs/config_ihep.conf
2022-12-01 10:21:47,314 - INFO - coldjiglib - load_hardware - Connecting to GRANT
2022-12-01 10:21:47,314 - INFO - coldjiglib - load_hardware - Connecting to GRANT
2022-12-01 10:21:47,486 - INFO - coldjiglib - load_hardware - Connecting to TC08_1
2022-12-01 10:21:47,486 - INFO - coldjiglib - load_hardware - Connecting to TC08_1
2022-12-01 10:21:52,885 - INFO - coldjiglib - load_hardware - Connecting to TC08_2
2022-12-01 10:21:52,885 - INFO - coldjiglib - load_hardware - Connecting to TC08_2
2022-12-01 10:21:53,599 - INFO - coldjiglib - load_hardware - Connecting to TENMA1
2022-12-01 10:21:53,599 - INFO - coldjiglib - load_hardware - Connecting to TENMA1
2022-12-01 10:21:54,069 - INFO - coldjiglib - load_hardware - Connecting to TENMA2
2022-12-01 10:21:54,069 - INFO - coldjiglib - load_hardware - Connecting to TENMA2
2022-12-01 10:21:54,537 - INFO - coldjiglib - load_hardware - Connecting to TENMA3
2022-12-01 10:21:54,537 - INFO - coldjiglib - load_hardware - Connecting to TENMA3
2022-12-01 10:21:55,008 - INFO - coldjiglib - load_hardware - Connecting to TENMA4
2022-12-01 10:21:55,008 - INFO - coldjiglib - load_hardware - Connecting to TENMA4
2022-12-01 10:21:55,494 - INFO - coldjiglib - load_hardware - Connecting to TENMA5
2022-12-01 10:21:55,494 - INFO - coldjiglib - load_hardware - Connecting to TENMA5
2022-12-01 10:21:55,961 - INFO - coldjiglib - load_hardware - Connecting to PIPLATE
2022-12-01 10:21:55,961 - INFO - coldjiglib - load_hardware - Connecting to PIPLATE
2022-12-01 10:21:56,379 - INFO - coldjiglib - load_hardware - Connecting to N2Flow
2022-12-01 10:21:56,379 - INFO - coldjiglib - load_hardware - Connecting to N2Flow
2022-12-01 10:21:56,394 - INFO - coldjiglib - load_hardware - Connecting to CoolantFlow
2022-12-01 10:21:56,394 - INFO - coldjiglib - load_hardware - Connecting to CoolantFlow
2022-12-01 10:21:56,398 - INFO - coldjiglib - load_hardware - Connecting to PeltierRelay
2022-12-01 10:21:56,398 - INFO - coldjiglib - load_hardware - Connecting to PeltierRelay
2022-12-01 10:21:56,401 - INFO - coldjiglib - load_hardware - Connecting to RH1
2022-12-01 10:21:56,401 - INFO - coldjiglib - load_hardware - Connecting to RH1
2022-12-01 10:21:56,507 - INFO - coldjiglib - load_hardware - Connecting to RH2
2022-12-01 10:21:56,507 - INFO - coldjiglib - load_hardware - Connecting to RH2
2022-12-01 10:21:56,610 - INFO - coldjiglib - load_hardware - Connecting to DewPoint1
2022-12-01 10:21:56,610 - INFO - coldjiglib - load_hardware - Connecting to DewPoint1
2022-12-01 10:21:56,678 - INFO - coldjiglib - load_hardware - Connecting to DewPoint2
2022-12-01 10:21:56,678 - INFO - coldjiglib - load_hardware - Connecting to DewPoint2
2022-12-01 10:21:56,680 - INFO - coldjiglib - load_hardware - Connecting to Lid1
2022-12-01 10:21:56,680 - INFO - coldjiglib - load_hardware - Connecting to Lid1
2022-12-01 10:21:56,684 - INFO - coldjiglib - load_hardware - Connecting to Lid2
2022-12-01 10:21:56,684 - INFO - coldjiglib - load_hardware - Connecting to Lid2
2022-12-01 10:21:56,686 - INFO - coldjiglib - load_hardware - Connecting to PID1
2022-12-01 10:21:56,686 - INFO - coldjiglib - load_hardware - Connecting to PID1
2022-12-01 10:21:56,691 - INFO - coldjiglib - load_hardware - Connecting to PID2
2022-12-01 10:21:56,691 - INFO - coldjiglib - load_hardware - Connecting to PID2
2022-12-01 10:21:56,693 - INFO - coldjiglib - load_hardware - Connecting to PID3
2022-12-01 10:21:56,693 - INFO - coldjiglib - load_hardware - Connecting to PID3
2022-12-01 10:21:56,696 - INFO - coldjiglib - load_hardware - Connecting to PID4
2022-12-01 10:21:56,696 - INFO - coldjiglib - load_hardware - Connecting to PID4
2022-12-01 10:21:56,699 - INFO - coldjiglib - load_hardware - Connecting to PID5
2022-12-01 10:21:56,699 - INFO - coldjiglib - load_hardware - Connecting to PID5
2022-12-01 10:21:56,757 - INFO - coldjiglib - core_loop - Optimising HW list for Read/Set
2022-12-01 10:21:56,757 - INFO - coldjiglib - core_loop - Optimising HW list for Read/Set
2022-12-01 10:21:56,811 - INFO - coldjiglib - core_loop - core loop started
2022-12-01 10:21:56,811 - INFO - coldjiglib - core_loop - core loop started
2022-12-01 10:21:56,814 - INFO - coldjiglib - interlock_loop - Interlock started
2022-12-01 10:21:56,814 - INFO - coldjiglib - interlock_loop - Interlock started
2022-12-01 10:21:56,815 - INFO - coldjiglib - interlock_loop - Interlock Action: Warwick_Action
2022-12-01 10:21:56,815 - INFO - coldjiglib - interlock_loop - Interlock Action: Warwick_Action
2022-12-01 10:21:56,817 - INFO - GUIlogger - on_btStartLib_pressed - Coldbox Controller is up!
2022-12-01 10:22:16,298 - INFO - coldjiglib - shutdown - Shutting down all tasks and core_loop
2022-12-01 10:22:16,298 - INFO - coldjiglib - shutdown - Shutting down all tasks and core_loop
2022-12-01 10:22:16,299 - INFO - coldjiglib - shutdown - waiting for core tasks to stop
2022-12-01 10:22:16,300 - INFO - coldjiglib - interlock_loop - Interlock Stopped
2022-12-01 10:22:16,299 - INFO - coldjiglib - shutdown - waiting for core tasks to stop
2022-12-01 10:22:16,300 - INFO - coldjiglib - interlock_loop - Interlock Stopped
2022-12-01 10:22:16,817 - INFO - coldjiglib - core_loop - core loop shut down
2022-12-01 10:22:16,817 - INFO - coldjiglib - core_loop - core loop shut down
2022-12-01 10:22:16,820 - INFO - coldjiglib - shutdown - All core tasks stopped
2022-12-01 10:22:16,820 - INFO - coldjiglib - shutdown - All core tasks stopped
2022-12-01 10:22:20,339 - INFO - GUIlogger - Shutdown_Lib - Coldbox Controller is down!
2022-12-01 10:22:20,570 - INFO - GUIlogger - on_close - GUI is terminated
